<?xml version="1.0" encoding="utf-8"?>
<!-- Generator: Adobe Illustrator 17.0.1, SVG Export Plug-In . SVG Version: 6.00 Build 0)  -->
<!DOCTYPE svg PUBLIC "-//W3C//DTD SVG 1.1//EN" "http://www.w3.org/Graphics/SVG/1.1/DTD/svg11.dtd">
<svg version="1.1" id="Layer_6" xmlns="http://www.w3.org/2000/svg" xmlns:xlink="http://www.w3.org/1999/xlink" x="0px" y="0px"
	 width="75px" height="184px" viewBox="0 2.75 75 184" enable-background="new 0 2.75 75 184" xml:space="preserve">
<g>
	<path fill="#51C0A7" stroke="#51C0A7" stroke-miterlimit="10" d="M14.588,111.455l-1.868-0.103l0.351-6.264
		c0.016-0.406-0.29-0.759-0.696-0.772l-2-0.116c-0.393-0.022-0.743,0.284-0.767,0.688l-0.347,6.263l-1.856-0.095
		c-0.812-0.044-1.496,0.574-1.544,1.37l-1.839,33.146c-0.053,0.8,0.567,1.493,1.367,1.531l7.192,0.403
		c0.8,0.05,1.485-0.574,1.525-1.376l1.852-33.137C15.997,112.188,15.384,111.498,14.588,111.455z"/>
	<path fill="#2C3E50" stroke="#2C3E50" stroke-miterlimit="10" d="M73.843,59.073l-7.182-36.43v-0.006
		c-0.715-3.541-4.164-5.844-7.709-5.125c-3.563,0.714-5.866,4.166-5.146,7.718l1.33,6.725c0,0-24.635-0.013-26.513-0.013
		c-8.212,0-14.626,4.977-15.601,12.454c-0.195,1.585-7.586,56.266-7.586,56.266c-0.419,3.597,2.145,6.873,5.736,7.296
		c3.587,0.432,6.864-2.126,7.295-5.723L23.276,64c0,2.217-1.798,41.173-1.798,41.173h1.798c0,31.676,0,72.391,0,72.391
		c0,4.179,3.401,7.573,7.592,7.57c4.179,0,7.555-3.392,7.555-7.57v-72.391h3.267v72.381c0,4.189,3.396,7.583,7.59,7.581
		c4.185,0,7.586-3.392,7.586-7.581v-72.381h1.74l-1.752-47.502c0,0,3.619,4.621,5.339,6.779c1.809,2.289,3.982,2.82,5.852,2.441
		C72.36,66.021,74.573,62.621,73.843,59.073z"/>
	<polygon fill="#2C3E50" stroke="#2C3E50" stroke-miterlimit="10" points="47.052,31.926 39.489,59.001 31.917,31.926 	"/>
	<polygon fill="#2C3E50" stroke="#2C3E50" stroke-miterlimit="10" points="37.291,86.285 39.489,75.811 41.689,86.285 	"/>
	<g>
		<polygon fill="#2C3E50" stroke="#2C3E50" stroke-miterlimit="10" points="40.881,37.117 38.004,37.117 36.553,31.926 
			42.349,31.926 		"/>
		<polygon fill="#51C0A7" stroke="#2C3E50" stroke-miterlimit="10" points="40.881,37.625 38.004,37.625 35.094,55.939 
			39.36,72.535 43.797,55.939 		"/>
	</g>
	<path fill="#2C3E50" stroke="#2C3E50" stroke-miterlimit="10" d="M53.404,16.727C53.42,9.382,47.453,3.438,40.128,3.438
		c-7.354,0-13.278,5.944-13.278,13.289c0,7.33,5.924,13.294,13.278,13.294C47.468,30.011,53.42,24.057,53.404,16.727z"/>
	<path fill="#51C0A7" stroke="#51C0A7" stroke-miterlimit="10" d="M54.123,28.488c-0.064,0.39-0.434,0.671-0.832,0.608l-2.058-0.292
		c-0.393-0.064-0.68-0.428-0.609-0.825l2.32-16.203c0.059-0.395,0.429-0.669,0.83-0.612l2.06,0.296
		c0.393,0.056,0.685,0.423,0.612,0.825L54.123,28.488z"/>
</g>
</svg>
