<?xml version="1.0" encoding="utf-8"?>
<!-- Generator: Adobe Illustrator 17.0.1, SVG Export Plug-In . SVG Version: 6.00 Build 0)  -->
<!DOCTYPE svg PUBLIC "-//W3C//DTD SVG 1.1//EN" "http://www.w3.org/Graphics/SVG/1.1/DTD/svg11.dtd">
<svg version="1.1" id="bitcoin" xmlns="http://www.w3.org/2000/svg" xmlns:xlink="http://www.w3.org/1999/xlink" x="0px" y="0px"
	 width="17.096px" height="17.098px" viewBox="0 0 17.096 17.098" enable-background="new 0 0 17.096 17.098" xml:space="preserve">
<circle fill="#F7941F" cx="8.549" cy="8.549" r="8.549"/>
<path id="symbol" fill="#FFFFFF" d="M12.261,7.502c0.168-1.122-0.686-1.725-1.855-2.128l0.379-1.52L9.86,3.624l-0.369,1.48
	C9.248,5.044,8.999,4.986,8.75,4.93l0.372-1.49L8.197,3.209L7.818,4.729C7.617,4.683,7.419,4.638,7.227,4.59l0.001-0.005
	L5.952,4.267L5.706,5.255c0,0,0.686,0.157,0.672,0.167C6.753,5.516,6.82,5.763,6.809,5.96L6.378,7.692
	c0.026,0.007,0.059,0.016,0.096,0.031C6.443,7.715,6.41,7.706,6.376,7.698l-0.605,2.426c-0.046,0.114-0.162,0.285-0.424,0.22
	c0.009,0.013-0.673-0.168-0.673-0.168l-0.459,1.059l1.204,0.3c0.224,0.056,0.444,0.115,0.66,0.17l-0.383,1.537l0.924,0.231
	l0.379-1.521c0.252,0.069,0.498,0.132,0.737,0.191l-0.378,1.514l0.925,0.231l0.383-1.534c1.578,0.299,2.764,0.178,3.263-1.249
	c0.402-1.149-0.02-1.812-0.85-2.244C11.685,8.722,12.14,8.324,12.261,7.502L12.261,7.502z M10.147,10.467
	c-0.286,1.149-2.22,0.528-2.848,0.372l0.508-2.037C8.435,8.959,10.446,9.269,10.147,10.467z M10.434,7.486
	C10.173,8.531,8.563,8,8.04,7.87l0.461-1.847C9.023,6.153,10.705,6.396,10.434,7.486z"/>
</svg>
