<?xml version="1.0" encoding="utf-8"?>
<!-- Generator: Adobe Illustrator 17.0.1, SVG Export Plug-In . SVG Version: 6.00 Build 0)  -->
<!DOCTYPE svg PUBLIC "-//W3C//DTD SVG 1.1//EN" "http://www.w3.org/Graphics/SVG/1.1/DTD/svg11.dtd">
<svg version="1.1" id="Layer_5" xmlns="http://www.w3.org/2000/svg" xmlns:xlink="http://www.w3.org/1999/xlink" x="0px" y="0px"
	 width="91.084px" height="29.46px" viewBox="0 0 91.084 29.46" enable-background="new 0 0 91.084 29.46" xml:space="preserve">
<g>
	<path fill="#3B97D3" d="M91.084,29.46C90.895,22.379,85.101,16.7,77.972,16.7c-0.215,0-0.429,0.006-0.646,0.017
		C75.628,7.874,67.854,1.192,58.518,1.192c-5.183,0-9.879,2.059-13.33,5.399C42.259,2.596,37.534,0,32.199,0
		c-8.895,0-16.105,7.209-16.105,16.103c0,0.319,0.013,0.635,0.032,0.947c-0.967-0.226-1.976-0.351-3.013-0.351
		C5.986,16.7,0.192,22.379,0,29.46H91.084z"/>
</g>
</svg>
