<?xml version="1.0" encoding="utf-8"?>
<!-- Generator: Adobe Illustrator 17.0.1, SVG Export Plug-In . SVG Version: 6.00 Build 0)  -->
<!DOCTYPE svg PUBLIC "-//W3C//DTD SVG 1.1//EN" "http://www.w3.org/Graphics/SVG/1.1/DTD/svg11.dtd">
<svg version="1.1" id="drops" xmlns="http://www.w3.org/2000/svg" xmlns:xlink="http://www.w3.org/1999/xlink" x="0px" y="0px"
	 width="12.366px" height="13.385px" viewBox="0 0 12.366 13.385" enable-background="new 0 0 12.366 13.385" xml:space="preserve">
<radialGradient id="SVGID_1_" cx="-1355.8976" cy="556.547" r="6.4617" gradientTransform="matrix(0.8861 0.4635 0.4635 -0.8861 951.2126 1127.3591)" gradientUnits="userSpaceOnUse">
	<stop  offset="0" style="stop-color:#4393B8"/>
	<stop  offset="1" style="stop-color:#346AA9"/>
</radialGradient>
<path fill="url(#SVGID_1_)" d="M7.11,11.918c0.734,1.358,2.43,1.865,3.788,1.131c1.359-0.734,1.865-2.43,1.131-3.788
	c-0.514-0.952-1.501-1.484-2.512-1.466L9.516,7.782C9.222,7.813,8.927,7.721,8.701,7.531c-0.439-0.336-0.56-0.954-0.265-1.433
	C8.668,5.72,9.094,5.535,9.507,5.591c0.928-0.01,1.83-0.481,2.353-1.331c0.809-1.313,0.399-3.036-0.914-3.845
	c-1.316-0.81-3.037-0.4-3.846,0.914C6.532,2.251,6.564,3.372,7.085,4.239h0c0.041,0.069,0.079,0.138,0.117,0.209L7.192,4.452
	C7.194,4.456,7.196,4.46,7.197,4.464c0.066,0.145,0.102,0.308,0.097,0.479c-0.017,0.6-0.518,1.072-1.117,1.055
	c-0.44-0.012-0.811-0.285-0.971-0.665c0-0.002,0-0.003-0.001-0.004C5.201,5.323,5.197,5.316,5.194,5.31
	C4.719,4.519,3.864,3.979,2.874,3.951C1.332,3.908,0.045,5.123,0.001,6.666c-0.043,1.543,1.172,2.83,2.715,2.874
	c1.081,0.03,2.036-0.558,2.526-1.442l0.01,0.006c0.174-0.39,0.57-0.657,1.024-0.645c0.065,0.002,0.128,0.01,0.19,0.023
	c0.315,0.057,0.602,0.25,0.766,0.553c0.21,0.391,0.158,0.852-0.096,1.182C6.68,10.024,6.637,11.041,7.11,11.918z"/>
</svg>
