<?xml version="1.0" encoding="utf-8"?>
<!-- Generator: Adobe Illustrator 17.0.1, SVG Export Plug-In . SVG Version: 6.00 Build 0)  -->
<!DOCTYPE svg PUBLIC "-//W3C//DTD SVG 1.1//EN" "http://www.w3.org/Graphics/SVG/1.1/DTD/svg11.dtd">
<svg version="1.1" id="Layer_44" xmlns="http://www.w3.org/2000/svg" xmlns:xlink="http://www.w3.org/1999/xlink" x="0px" y="0px"
	 width="243.95px" height="49.862px" viewBox="0 0 243.95 49.862" enable-background="new 0 0 243.95 49.862" xml:space="preserve">
<circle fill="#2D3E50" cx="24.931" cy="24.931" r="24.931"/>
<g>
	<path fill="#2D3E50" d="M75.594,13.617c-4.557,0-6.202,3.103-6.202,3.103h-0.078v-0.767c0-1.07-0.65-1.875-2.45-1.875h-4.326v4.135
		h1.531c0.535,0,0.841,0.268,0.841,0.842v22.208h4.826v-8.08c0-0.994-0.077-1.683-0.077-1.683h0.077c0,0,1.723,2.564,5.588,2.564
		c5.132,0,8.96-4.021,8.96-10.225C84.285,17.793,80.877,13.617,75.594,13.617z M74.445,29.969c-3.216,0-4.823-2.987-4.823-6.012
		c0-4.326,2.374-6.164,4.901-6.164c2.872,0,4.862,2.411,4.862,6.126C79.385,27.785,77.126,29.969,74.445,29.969z"/>
	<path fill="#2D3E50" d="M96.656,13.619c-5.857,0-9.916,4.211-9.916,10.222c0,5.553,4.019,10.225,10.49,10.225
		c4.863,0,7.849-2.949,7.849-2.949l-2.028-3.369c0,0-2.336,2.182-5.476,2.182c-2.948,0-5.475-1.799-5.857-5.245h13.477
		c0,0,0.115-1.226,0.115-1.799C105.309,17.714,102.247,13.619,96.656,13.619z M91.87,21.315c0.536-2.451,2.297-3.945,4.786-3.945
		c1.992,0,3.599,1.609,3.676,3.945H91.87z"/>
	<path fill="#2D3E50" d="M117.967,13.619c-5.858,0-9.916,4.211-9.916,10.222c0,5.553,4.021,10.225,10.492,10.225
		c4.861,0,7.85-2.949,7.85-2.949l-2.031-3.369c0,0-2.335,2.182-5.474,2.182c-2.949,0-5.476-1.799-5.858-5.245h13.477
		c0,0,0.114-1.226,0.114-1.799C126.621,17.714,123.559,13.619,117.967,13.619z M113.182,21.315c0.535-2.451,2.3-3.945,4.785-3.945
		c1.992,0,3.599,1.609,3.676,3.945H113.182z"/>
	<path fill="#2D3E50" d="M135.987,18.825h-0.076c0,0,0.076-0.497,0.076-1.225v-1.148c0-1.646-0.88-2.374-2.602-2.374h-4.442v4.136
		h1.532c0.535,0,0.842,0.267,0.842,0.841v14.551h4.822v-7.736c0-1.146,0.153-2.22,0.423-3.176c0.881-2.91,3.254-4.097,5.322-4.097
		c0.689,0,1.186,0.075,1.186,0.075v-4.786c0,0-0.46-0.074-0.879-0.074C139.203,13.811,136.868,16.031,135.987,18.825z"/>
	<path fill="#2D3E50" d="M155.403,29.815c-3.14,0-6.087-2.03-6.087-6.013c0-3.521,2.411-6.089,5.782-6.089
		c1.186,0,2.794,0.461,2.794,1.533v1.073h4.288v-2.3c0-3.368-4.557-4.401-7.082-4.401c-6.7,0-10.684,4.709-10.684,10.222
		c0,5.668,4.137,10.225,10.567,10.225c5.322,0,8.233-3.524,8.233-3.524l-2.03-3.369C161.185,27.172,158.736,29.815,155.403,29.815z"
		/>
	<path fill="#2D3E50" d="M175.661,13.619c-5.934,0-10.682,4.249-10.682,10.222c0,6.012,4.748,10.225,10.682,10.225
		c5.975,0,10.721-4.213,10.721-10.225C186.382,17.867,181.636,13.619,175.661,13.619z M175.661,29.929
		c-3.139,0-5.782-2.45-5.782-6.088c0-3.6,2.643-6.086,5.782-6.086c3.179,0,5.821,2.486,5.821,6.086
		C181.483,27.478,178.839,29.929,175.661,29.929z"/>
	<path fill="#2D3E50" d="M202.197,15.916l-3.677,10.261c-0.382,1.148-0.689,2.796-0.689,2.796h-0.076c0,0-0.306-1.647-0.727-2.796
		l-3.675-10.261c-0.498-1.34-1.264-1.838-2.872-1.838h-2.796v4.136h0.422c0.535,0,0.881,0.192,1.071,0.688l5.592,14.704h5.78
		l5.591-14.704c0.19-0.495,0.535-0.688,1.07-0.688h0.46v-4.136h-2.604C203.497,14.078,202.695,14.576,202.197,15.916z"/>
	<path fill="#2D3E50" d="M218.849,13.619c-5.859,0-9.918,4.211-9.918,10.222c0,5.553,4.02,10.225,10.491,10.225
		c4.863,0,7.849-2.949,7.849-2.949l-2.028-3.369c0,0-2.334,2.182-5.475,2.182c-2.948,0-5.476-1.799-5.858-5.245h13.478
		c0,0,0.116-1.226,0.116-1.799C227.503,17.714,224.439,13.619,218.849,13.619z M214.064,21.315c0.535-2.451,2.296-3.945,4.785-3.945
		c1.989,0,3.6,1.609,3.675,3.945H214.064z"/>
	<path fill="#2D3E50" d="M243.07,13.811c-2.985,0-5.321,2.22-6.201,5.014h-0.077c0,0,0.077-0.497,0.077-1.225v-1.148
		c0-1.646-0.88-2.374-2.605-2.374h-4.441v4.136h1.532c0.537,0,0.841,0.267,0.841,0.841v14.551h4.825v-7.736
		c0-1.146,0.154-2.22,0.421-3.176c0.881-2.91,3.255-4.097,5.321-4.097c0.689,0,1.188,0.075,1.188,0.075v-4.786
		C243.95,13.886,243.491,13.811,243.07,13.811z"/>
</g>
<path fill="#FFFFFF" d="M11.662,13.833c0,0.014-0.005,0.026-0.005,0.039c0,0.393,0.624,0.787,1.243,0.952l5.644-1.121l3.571-0.834
	l-9.805,0.447v0.002C12.034,13.356,11.691,13.531,11.662,13.833z"/>
<path fill="#FFFFFF" d="M35.607,12.255l-0.249,0.011l0.551,2.601h0.509c0.694,0.01,1.173,0.167,1.51,0.403v-0.691
	C37.928,13.503,37.655,12.286,35.607,12.255z"/>
<rect x="12.179" y="15.315" fill="#43BDA4" width="0" height="0.222"/>
<polygon fill="#FFFFFF" points="34.414,10.551 34.343,10.268 25.876,12.246 "/>
<rect x="12.548" y="15.315" fill="#43BDA4" width="0" height="0.22"/>
<polygon fill="#FFFFFF" points="13.792,14.901 18.554,14.892 34.112,11.804 34.761,14.868 35.687,14.866 34.812,10.726 "/>
<path fill="#2D3F50" d="M34.112,11.804l-15.558,3.089l7.455-0.012l0.206-0.04l-0.199-0.94l-0.41,0.083l-0.025-0.113
	c0.188-0.037,0.373-0.087,0.552-0.145c0.181-0.062,0.319-0.126,0.419-0.188l0.196-0.039L27,14.684l0.492-0.098l0.018,0.094
	l-1.009,0.2l1.631-0.002l5.309-1.054c0.231-0.046,0.468,0.137,0.524,0.405l0.136,0.639h0.659L34.112,11.804z M29.012,14.403
	c-0.185,0.037-0.356,0.061-0.513,0.071c-0.158,0.009-0.297-0.003-0.416-0.031c-0.119-0.027-0.218-0.079-0.298-0.153
	c-0.078-0.073-0.131-0.172-0.158-0.302c-0.028-0.127-0.018-0.239,0.024-0.337c0.044-0.097,0.113-0.182,0.21-0.256
	c0.099-0.07,0.222-0.132,0.369-0.185c0.151-0.051,0.319-0.095,0.501-0.131c0.189-0.037,0.362-0.063,0.522-0.073
	c0.16-0.01,0.3,0.001,0.422,0.027c0.121,0.029,0.222,0.081,0.299,0.154c0.079,0.075,0.132,0.173,0.159,0.301
	c0.029,0.128,0.017,0.24-0.024,0.338c-0.042,0.098-0.113,0.183-0.213,0.255c-0.1,0.073-0.225,0.137-0.376,0.189
	C29.37,14.321,29.2,14.365,29.012,14.403z M32.468,13.683c-0.153,0.052-0.321,0.096-0.509,0.133
	c-0.186,0.037-0.358,0.061-0.514,0.071c-0.16,0.01-0.297-0.001-0.415-0.032c-0.12-0.027-0.218-0.078-0.296-0.151
	c-0.081-0.073-0.132-0.173-0.161-0.302c-0.026-0.129-0.02-0.239,0.025-0.337c0.043-0.099,0.112-0.184,0.21-0.257
	c0.096-0.069,0.219-0.133,0.369-0.186c0.148-0.05,0.315-0.093,0.501-0.13c0.188-0.038,0.36-0.063,0.522-0.074
	c0.157-0.007,0.298,0.002,0.418,0.028c0.123,0.03,0.225,0.081,0.304,0.154c0.078,0.073,0.132,0.173,0.157,0.299
	c0.029,0.131,0.02,0.242-0.022,0.34c-0.042,0.098-0.116,0.183-0.215,0.254C32.741,13.568,32.615,13.631,32.468,13.683z"/>
<path fill="#2D3F50" d="M32.173,13.55c0.026-0.043,0.041-0.104,0.045-0.179c0.004-0.078-0.004-0.173-0.029-0.292
	c-0.026-0.119-0.058-0.214-0.094-0.281c-0.036-0.068-0.074-0.116-0.116-0.148c-0.041-0.033-0.085-0.05-0.133-0.053
	c-0.046-0.005-0.094,0.001-0.142,0.011c-0.046,0.009-0.087,0.023-0.127,0.044c-0.04,0.021-0.072,0.052-0.098,0.098
	c-0.025,0.045-0.038,0.104-0.043,0.182c-0.004,0.075,0.006,0.172,0.03,0.292c0.026,0.119,0.055,0.212,0.09,0.28
	c0.038,0.067,0.072,0.118,0.115,0.148c0.042,0.031,0.084,0.052,0.13,0.056c0.043,0.003,0.088,0.003,0.135-0.007
	c0.048-0.01,0.092-0.025,0.134-0.048C32.112,13.633,32.146,13.598,32.173,13.55z"/>
<path fill="#2D3F50" d="M28.61,14.09c0.035,0.067,0.073,0.118,0.112,0.148c0.042,0.033,0.086,0.052,0.13,0.056
	c0.046,0.004,0.091,0.002,0.135-0.006c0.049-0.011,0.093-0.027,0.136-0.048c0.041-0.021,0.077-0.056,0.103-0.102
	c0.025-0.044,0.04-0.105,0.046-0.181c0.004-0.077-0.006-0.172-0.031-0.292c-0.026-0.12-0.056-0.213-0.092-0.279
	c-0.039-0.069-0.075-0.118-0.118-0.151c-0.042-0.031-0.085-0.048-0.131-0.052c-0.05-0.004-0.096,0.001-0.145,0.011
	c-0.044,0.009-0.086,0.023-0.127,0.043c-0.037,0.021-0.072,0.053-0.098,0.1c-0.023,0.045-0.038,0.104-0.042,0.182
	c-0.007,0.075,0.003,0.173,0.028,0.293C28.543,13.93,28.573,14.021,28.61,14.09z"/>
<path fill="#FFFFFF" d="M33.441,13.824l-5.309,1.054l5.97-0.01l-0.136-0.639C33.909,13.961,33.673,13.778,33.441,13.824z"/>
<path fill="#FFFFFF" d="M27.491,14.586l-0.492,0.098l-0.25-1.186l-0.197,0.039c-0.1,0.063-0.238,0.127-0.417,0.188
	c-0.18,0.058-0.364,0.107-0.552,0.145l0.024,0.113l0.41-0.083l0.2,0.94l-0.207,0.04L26.5,14.88l1.009-0.2L27.491,14.586z"/>
<path fill="#FFFFFF" d="M29.897,14.081c0.1-0.071,0.17-0.156,0.213-0.254c0.042-0.099,0.052-0.21,0.024-0.339
	c-0.027-0.128-0.08-0.225-0.159-0.301c-0.079-0.072-0.178-0.124-0.299-0.153c-0.123-0.026-0.263-0.037-0.423-0.028
	c-0.16,0.012-0.333,0.036-0.522,0.074c-0.184,0.035-0.351,0.079-0.501,0.131c-0.147,0.052-0.27,0.114-0.369,0.185
	c-0.098,0.074-0.168,0.158-0.21,0.256c-0.041,0.098-0.051,0.21-0.024,0.336c0.026,0.131,0.08,0.229,0.158,0.303
	c0.08,0.073,0.178,0.125,0.298,0.153c0.119,0.028,0.258,0.039,0.415,0.031c0.158-0.013,0.33-0.035,0.514-0.071
	c0.188-0.039,0.357-0.082,0.509-0.132C29.671,14.219,29.796,14.155,29.897,14.081z M28.531,13.337c0.025-0.048,0.06-0.079,0.097-0.1
	c0.041-0.021,0.084-0.035,0.127-0.043c0.049-0.01,0.096-0.015,0.145-0.011c0.046,0.004,0.09,0.021,0.131,0.052
	c0.044,0.033,0.081,0.081,0.118,0.15c0.037,0.067,0.067,0.16,0.092,0.28c0.026,0.119,0.035,0.215,0.031,0.291
	c-0.006,0.076-0.021,0.138-0.046,0.181c-0.026,0.047-0.062,0.082-0.103,0.102c-0.042,0.02-0.087,0.037-0.135,0.048
	c-0.044,0.008-0.089,0.009-0.135,0.006c-0.044-0.004-0.088-0.022-0.131-0.056c-0.038-0.031-0.076-0.081-0.112-0.149
	c-0.037-0.068-0.067-0.159-0.092-0.278c-0.025-0.12-0.036-0.218-0.029-0.293C28.493,13.44,28.509,13.382,28.531,13.337z"/>
<path fill="#FFFFFF" d="M33.057,13.239c0.042-0.097,0.052-0.208,0.023-0.339c-0.026-0.127-0.08-0.226-0.158-0.299
	c-0.079-0.073-0.181-0.125-0.303-0.154c-0.122-0.026-0.262-0.036-0.419-0.028c-0.162,0.012-0.333,0.035-0.522,0.073
	c-0.186,0.037-0.354,0.081-0.502,0.13c-0.149,0.054-0.273,0.116-0.368,0.187c-0.098,0.072-0.169,0.158-0.212,0.257
	c-0.045,0.098-0.051,0.208-0.023,0.336c0.027,0.13,0.079,0.229,0.159,0.302c0.079,0.074,0.177,0.125,0.297,0.151
	c0.118,0.031,0.255,0.043,0.415,0.033c0.156-0.011,0.328-0.035,0.514-0.072c0.188-0.037,0.356-0.081,0.507-0.132
	c0.148-0.052,0.274-0.114,0.375-0.189C32.942,13.423,33.015,13.337,33.057,13.239z M31.935,13.7c-0.046,0.01-0.09,0.012-0.134,0.007
	c-0.047-0.004-0.089-0.023-0.131-0.056c-0.042-0.03-0.077-0.081-0.115-0.148c-0.035-0.068-0.063-0.16-0.089-0.28
	c-0.025-0.12-0.035-0.217-0.031-0.292c0.006-0.077,0.019-0.137,0.045-0.182c0.025-0.046,0.058-0.077,0.097-0.098
	c0.04-0.021,0.082-0.035,0.127-0.044c0.049-0.01,0.096-0.015,0.142-0.01c0.048,0.002,0.093,0.019,0.135,0.052
	c0.041,0.032,0.081,0.081,0.115,0.149c0.037,0.067,0.068,0.161,0.094,0.281c0.025,0.118,0.033,0.216,0.03,0.291
	c-0.005,0.075-0.021,0.137-0.046,0.181c-0.027,0.046-0.061,0.081-0.104,0.103C32.027,13.675,31.983,13.691,31.935,13.7z"/>
<path fill="#43BDA4" d="M11.752,14.903c0.12,0.072,0.253,0.137,0.396,0.196c0.049,0.021,0.104,0.037,0.155,0.057
	c0.002,0,0.006,0.001,0.01,0.002l0,0c0.157,0.058,0.324,0.106,0.502,0.147c0.097,0.023,0.196,0.044,0.298,0.062
	c0.08,0.013,0.163,0.023,0.247,0.032c0.084,0.01,0.17,0.018,0.257,0.023l22.801-0.037c0.672,0.011,1.158,0.139,1.509,0.346
	c0.762,0.442,0.895,1.241,0.895,1.977v-0.523c-0.101-0.597-0.194-1.427-0.895-1.916l0,0c-0.336-0.237-0.815-0.394-1.509-0.406h-0.51
	l-0.551-2.6l0.25-0.01c2.048,0.031,2.32,1.247,2.32,2.322v-0.522c-0.146-0.886-0.272-2.289-2.32-2.322l-0.359,0.017l-0.277-1.31
	l-0.346,0.069l-0.132-0.532l-9.597,2.242l-12.621,0.574c-0.096,0-0.233,0.028-0.381,0.077c-0.146,0.036-0.281,0.095-0.4,0.172
	c-0.218,0.122-0.343,0.259-0.41,0.427c-0.051,0.108-0.07,0.239-0.074,0.365c0,0.013-0.001,0.024-0.001,0.038
	c0,0.054,0.009,0.105,0.02,0.158C11.145,14.401,11.446,14.721,11.752,14.903z M34.812,10.726l0.875,4.14l-0.927,0.002h-0.659
	l-5.969,0.01L26.5,14.88l-0.491,0.001l-7.455,0.012l-4.762,0.009L34.812,10.726z M34.343,10.268l0.07,0.282l-8.538,1.696
	L34.343,10.268z M22.114,12.869l-3.571,0.834l-5.644,1.121c-0.619-0.165-1.243-0.56-1.243-0.952c0-0.013,0.005-0.025,0.005-0.039
	c0.03-0.302,0.372-0.477,0.648-0.514l-0.001-0.003L22.114,12.869z"/>
<path fill="#FFFFFF" d="M38.821,17.709c0-0.735-0.132-1.534-0.894-1.975c-0.351-0.208-0.838-0.337-1.51-0.348l-22.801,0.037
	c-0.087-0.006-0.173-0.013-0.257-0.022c-0.082-0.011-0.167-0.02-0.246-0.033c-0.103-0.017-0.202-0.038-0.299-0.061
	c-0.177-0.041-0.345-0.091-0.502-0.148c-0.003-0.001-0.006-0.002-0.01-0.003c-0.051-0.019-0.106-0.036-0.154-0.057
	c-0.144-0.059-0.276-0.124-0.396-0.195c-0.308-0.184-0.607-0.503-0.725-0.875c-0.003-0.009-0.009-0.017-0.012-0.026l0.015,2.091
	l0.01,19.825v0.523c0.062,0.915,0.799,1.282,1.592,1.309l24.492-0.026c1.066-0.085,1.698-1.124,1.705-1.869v-0.512
	c0-0.003,0-0.007,0-0.01L38.821,17.709z M12.437,15.425L12.437,15.425h0.22l0,0H12.437z M12.068,15.426l0.222-0.001l0,0
	L12.068,15.426l-0.415,0.001L12.068,15.426z"/>
</svg>
