<?xml version="1.0" encoding="utf-8"?>
<!-- Generator: Adobe Illustrator 17.0.1, SVG Export Plug-In . SVG Version: 6.00 Build 0)  -->
<!DOCTYPE svg PUBLIC "-//W3C//DTD SVG 1.1//EN" "http://www.w3.org/Graphics/SVG/1.1/DTD/svg11.dtd">
<svg version="1.1" id="Layer_15" xmlns="http://www.w3.org/2000/svg" xmlns:xlink="http://www.w3.org/1999/xlink" x="0px" y="0px"
	 width="60.989px" height="42.02px" viewBox="0 0 60.989 42.02" enable-background="new 0 0 60.989 42.02" xml:space="preserve">
<path fill="#14A589" d="M35.172,4.817C24.281-1.364,6.163-2.349,1.264,6.338c-4.899,8.684,5.28,23.757,16.17,29.934
	c9.957,5.658,21.507,4.436,27.155-2.458L57.9,42.02l3.089-5.463l-13.954-7.065C50.053,21.073,45.143,10.485,35.172,4.817z"/>
</svg>
