<?xml version="1.0" encoding="utf-8"?>
<!-- Generator: Adobe Illustrator 17.0.1, SVG Export Plug-In . SVG Version: 6.00 Build 0)  -->
<!DOCTYPE svg PUBLIC "-//W3C//DTD SVG 1.1//EN" "http://www.w3.org/Graphics/SVG/1.1/DTD/svg11.dtd">
<svg version="1.1" id="Layer_20" xmlns="http://www.w3.org/2000/svg" xmlns:xlink="http://www.w3.org/1999/xlink" x="0px" y="0px"
	 width="35.011px" height="66.026px" viewBox="-7.842 0 35.011 66.026" enable-background="new -7.842 0 35.011 66.026"
	 xml:space="preserve">
<path fill="#11A588" d="M22.743,35.174c6.995-13.221,3.605-31.499,3.605-31.499S9.619,11.034,2.479,24.528
	c-4.925,9.308-5.369,18.958-1.48,23.044L-7.842,64.11l3.62,1.916l8.847-16.548C10.198,50.361,17.818,44.482,22.743,35.174z"/>
</svg>
