<?xml version="1.0" encoding="utf-8"?>
<!-- Generator: Adobe Illustrator 16.0.0, SVG Export Plug-In . SVG Version: 6.00 Build 0)  -->
<!DOCTYPE svg PUBLIC "-//W3C//DTD SVG 1.1//EN" "http://www.w3.org/Graphics/SVG/1.1/DTD/svg11.dtd">
<svg version="1.1"
	 id="svg2" inkscape:version="0.48.4 r9939" sodipodi:docname="peercover-logo-final.svg" xmlns:dc="http://purl.org/dc/elements/1.1/" xmlns:cc="http://creativecommons.org/ns#" xmlns:rdf="http://www.w3.org/1999/02/22-rdf-syntax-ns#" xmlns:sodipodi="http://sodipodi.sourceforge.net/DTD/sodipodi-0.dtd" xmlns:svg="http://www.w3.org/2000/svg" xmlns:inkscape="http://www.inkscape.org/namespaces/inkscape"
	 xmlns="http://www.w3.org/2000/svg" xmlns:xlink="http://www.w3.org/1999/xlink" x="0px" y="0px" width="138px" height="138px"
	 viewBox="0 0 138 138" enable-background="new 0 0 138 138" xml:space="preserve">
<sodipodi:namedview  fit-margin-right="0" fit-margin-bottom="0" inkscape:window-y="24" inkscape:pageshadow="0" inkscape:current-layer="g10" inkscape:window-height="750" inkscape:pageopacity="0" inkscape:window-width="1280" inkscape:window-maximized="1" inkscape:window-x="0" inkscape:cy="68.855886" inkscape:cx="119.80967" inkscape:zoom="2.5373122" fit-margin-left="0" fit-margin-top="0" showgrid="false" guidetolerance="10" gridtolerance="10" objecttolerance="10" bordercolor="#666666" pagecolor="#ffffff" id="namedview4" borderopacity="1">
	</sodipodi:namedview>
<g id="g10" transform="matrix(1.25,0,0,-1.25,-183.87964,442.53794)" inkscape:groupmode="layer" inkscape:label="peercover-logo-final">
	<g id="g3065" transform="translate(1.190877,1.191357)">
		<path id="path32" inkscape:connector-curvature="0" fill="#2C3D50" d="M255.122,297.639c0-29.83-24.18-54.009-54.009-54.009
			c-29.826,0-54.009,24.179-54.009,54.009c0,29.826,24.184,54.009,54.009,54.009C230.943,351.648,255.122,327.465,255.122,297.639z"
			/>
		<g id="g3694" transform="matrix(0.87412413,0,0,0.87412413,50.541465,-721.08532)">
			<path id="path3696" inkscape:connector-curvature="0" fill="#FFFFFF" d="M156.03,1165.987c-2.14,4.686-3.21,10.05-3.21,16.095
				h-11.106v-4.165c0-2.255,1.367-4.598,4.1-7.027C148.547,1168.461,151.952,1166.826,156.03,1165.987z M202.794,1177.917v4.165
				H191.69c0-6.045-1.071-11.409-3.212-16.095c4.079,0.839,7.484,2.473,10.217,4.902
				C201.428,1173.319,202.794,1175.662,202.794,1177.917z M208.347,1183.471v-5.554c0-2.054-0.601-4.121-1.802-6.203
				c-1.198-2.083-2.819-3.962-4.858-5.64c-2.039-1.678-4.539-3.086-7.505-4.229c-2.964-1.145-6.08-1.788-9.349-1.931
				c-1.216-1.562-2.587-2.937-4.122-4.122c-1.099-0.983-1.856-2.031-2.276-3.145c-0.418-1.113-0.629-2.408-0.629-3.882
				c0-1.562,0.441-2.879,1.324-3.948c0.883-1.071,2.292-1.605,4.228-1.605c2.169,0,4.1-0.656,5.791-1.974
				c1.691-1.315,2.538-2.972,2.538-4.967v-2.776c0-0.406-0.13-0.737-0.391-0.998c-0.26-0.26-0.593-0.391-0.998-0.391h-36.092
				c-0.405,0-0.737,0.13-0.998,0.391c-0.26,0.261-0.39,0.593-0.39,0.998v2.776c0,1.995,0.846,3.65,2.538,4.967
				c1.692,1.317,3.623,1.974,5.792,1.974c1.937,0,3.347,0.534,4.229,1.605c0.882,1.069,1.323,2.385,1.323,3.948
				c0,1.475-0.209,2.77-0.628,3.882c-0.419,1.113-1.179,2.161-2.277,3.145c-1.533,1.186-2.907,2.56-4.122,4.122
				c-3.268,0.144-6.384,0.786-9.349,1.931c-2.964,1.143-5.466,2.551-7.505,4.229s-3.659,3.557-4.858,5.64
				c-1.201,2.082-1.801,4.149-1.801,6.203v5.554c0,1.155,0.405,2.14,1.215,2.949c0.81,0.809,1.793,1.215,2.95,1.215h12.494v4.165
				c0,1.908,0.679,3.542,2.039,4.901c1.359,1.358,2.993,2.039,4.902,2.039h24.988c1.907,0,3.541-0.681,4.9-2.039
				c1.359-1.359,2.039-2.993,2.039-4.901v-4.165h12.493c1.157,0,2.141-0.405,2.951-1.215
				C207.942,1185.61,208.347,1184.626,208.347,1183.471z"/>
		</g>
	</g>
</g>
</svg>
